<?xml version="1.0" encoding="utf-8"?>
<!-- Generator: Adobe Illustrator 21.0.0, SVG Export Plug-In . SVG Version: 6.00 Build 0)  -->
<svg version="1.1" id="logo" xmlns="http://www.w3.org/2000/svg" xmlns:xlink="http://www.w3.org/1999/xlink" x="0px" y="0px"
	 viewBox="0 0 122.7 143" style="enable-background:new 0 0 122.7 143;" xml:space="preserve">
<style type="text/css">
	.st0{fill:#FFFFFF;}
</style>
<path id="logoHush" class="st0" d="M96.8,117.6c-2.8,2.3-7,3.2-10,3.5c-0.8,0.1-1.7,0.2-2.7,0.2c-0.1,0-0.2,0-0.3,0
	c-0.3,0-0.5,0-0.5,0l0,0c-5.3-0.4-8.2-4.4-8.7-12.2V78c0-0.4,0-0.8,0-1.2c-0.2-12-2.6-21.2-7.1-27.3c-2.7-3.6-6-6.2-10-7.7
	c-3.1-1.2-6.7-1.8-10.6-1.8c-8.2,0-15.1,3.5-20.8,10.6V0H0v141.2h26v-73c2.6-4.4,6.3-6.5,11-6.5c4,0,7,1.3,8.8,3.9
	c1.6,2.3,2.5,5.8,2.7,10.5v30c0,0.8,0,1.5,0,2.2c0.3,10.9,2.6,19.3,7,25.2c2.6,3.5,6,6,10,7.6c3.2,1.2,6.8,1.8,10.8,1.8
	c8.5,0,15.3-3.2,20.5-9.5l0,7.8h25.8V41.8H96.5L96.8,117.6z"/>
</svg>
