<?xml version="1.0" encoding="utf-8"?>
<!-- Generator: Adobe Illustrator 21.0.0, SVG Export Plug-In . SVG Version: 6.00 Build 0)  -->
<svg version="1.1" id="INTERACTIONS" xmlns="http://www.w3.org/2000/svg" xmlns:xlink="http://www.w3.org/1999/xlink" x="0px"
	 y="0px" viewBox="0 0 90 90" style="enable-background:new 0 0 90 90;" xml:space="preserve">
<style type="text/css">
	.st0{fill:#FFFFFF;}
</style>
<g>
	<path id="LinkedIn" class="st0" d="M87.7,54.6v31.6H69.4V56.8c0-7.2-2.8-12.8-9.4-12.8c-5,0-8.3,3.3-9.4,6.7C50,52.4,50,54,50,55.7
		v31H31.7c0,0,0-50.4,0-55.4H50v7.8l0,0l0,0l0,0c2.2-3.9,6.7-9.4,16.6-9.4C78.8,29.7,87.7,37.4,87.7,54.6z M12.3,4.1
		C5.7,4.1,1.8,8,1.8,13.6s3.9,9.4,10,9.4l0,0c6.7,0,10.5-4.4,10.5-9.4C22.3,8,18.4,4.1,12.3,4.1z M2.9,86.8h18.3V31.3H2.9V86.8z"/>
</g>
</svg>
