<?xml version="1.0" encoding="utf-8"?>
<!-- Generator: Adobe Illustrator 21.1.0, SVG Export Plug-In . SVG Version: 6.00 Build 0)  -->
<svg version="1.1"
	 id="Calque_1" xmlns:cc="http://creativecommons.org/ns#" xmlns:dc="http://purl.org/dc/elements/1.1/" xmlns:inkscape="http://www.inkscape.org/namespaces/inkscape" xmlns:rdf="http://www.w3.org/1999/02/22-rdf-syntax-ns#" xmlns:sodipodi="http://sodipodi.sourceforge.net/DTD/sodipodi-0.dtd" xmlns:svg="http://www.w3.org/2000/svg"
	 xmlns="http://www.w3.org/2000/svg" xmlns:xlink="http://www.w3.org/1999/xlink" x="0px" y="0px" viewBox="0 0 64 56.5"
	 style="enable-background:new 0 0 64 56.5;" xml:space="preserve">
<style type="text/css">
	.st0{fill:#fff;}
</style>
<g transform="translate(0,-952.36218)">
	<g>
		<path class="st0" d="M58,952.4c3.3,0,6,2.7,6,6v29.8c0,3.3-2.7,6-6,6h-6.7l1.3,13.2c0.1,0.6-0.3,1.2-0.8,1.5
			c-0.5,0.3-1.2,0.2-1.7-0.3L35.7,994h-5.2v2.3c0,2.4-2,4.4-4.4,4.4H14.9l-7.9,7.7c-0.4,0.4-1.2,0.6-1.7,0.3c-0.6-0.3-0.9-1-0.8-1.6
			l1.1-6.4H4.4c-2.4,0-4.4-2-4.4-4.4v-14.2c0-2.4,2-4.4,4.4-4.4h4.5v-19.3c0-3.3,2.7-6,6-6H58z M58,955.3H14.9c-1.7,0-3,1.3-3,3
			v29.8c0,1.7,1.3,3,3,3h21.4c0.4,0,0.8,0.2,1,0.4l12,11.9l-1.1-10.7c-0.1-0.8,0.7-1.6,1.5-1.6H58c1.7,0,3-1.3,3-3v-29.8
			C61,956.6,59.7,955.3,58,955.3z M52.8,962c0.8,0,1.5,0.7,1.5,1.5s-0.7,1.5-1.5,1.5H20.1c-0.8,0-1.5-0.7-1.5-1.5s0.7-1.5,1.5-1.5
			H52.8z M52.8,971.7c0.8,0,1.5,0.7,1.5,1.5s-0.7,1.5-1.5,1.5H20.1c-0.8,0-1.5-0.7-1.5-1.5s0.7-1.5,1.5-1.5H52.8z M8.9,980.6H4.4
			c-0.8,0-1.5,0.6-1.5,1.4v14.2c0,0.8,0.6,1.4,1.5,1.4h3c0.9,0,1.6,0.9,1.5,1.7l-0.6,3.6l5-4.9c0.3-0.3,0.7-0.4,1-0.4h11.8
			c0.8,0,1.5-0.6,1.5-1.4V994H14.9c-3.3,0-6-2.7-6-6V980.6z M52.8,981.4c0.8,0,1.5,0.7,1.5,1.5c0,0.8-0.7,1.5-1.5,1.5H20.1
			c-0.8,0-1.5-0.7-1.5-1.5c0-0.8,0.7-1.5,1.5-1.5H52.8z"/>
	</g>
</g>
</svg>
