<?xml version="1.0" encoding="utf-8"?>
<!-- Generator: Adobe Illustrator 21.1.0, SVG Export Plug-In . SVG Version: 6.00 Build 0)  -->
<svg version="1.1" id="Calque_1" xmlns="http://www.w3.org/2000/svg" xmlns:xlink="http://www.w3.org/1999/xlink" x="0px" y="0px"
	 viewBox="0 0 38.6 30" style="enable-background:new 0 0 38.6 30;" xml:space="preserve">
<g>
	<title>71 - Like Stopwatch (interaction, communication, interface)</title>
	<desc>Created with Sketch.</desc>
</g>
<circle cx="19.3" cy="23.8" r="0.8"/>
<g>
	<path d="M24.8,19.2v1.9h-11v-6.5V7.5h11v2h1V5c0-0.8-0.7-1.5-1.5-1.5h-10c-0.8,0-1.5,0.7-1.5,1.5v9.6V25c0,0.8,0.7,1.5,1.5,1.5h10
		c0.8,0,1.5-0.7,1.5-1.5v-5.8H24.8z M13.8,5c0-0.3,0.2-0.5,0.5-0.5h10c0.3,0,0.5,0.2,0.5,0.5v1.5h-11V5z M24.8,25
		c0,0.3-0.2,0.5-0.5,0.5h-10c-0.3,0-0.5-0.2-0.5-0.5v-2.9h11V25z"/>
	<path d="M33.2,19.7H22.8c-1.2,0-2.1-1-2.1-2.1v-6.5c0-1.2,1-2.1,2.1-2.1h10.4c1.2,0,2.1,1,2.1,2.1v6.5
		C35.3,18.8,34.4,19.7,33.2,19.7z M22.8,10c-0.6,0-1.1,0.5-1.1,1.1v6.5c0,0.6,0.5,1.1,1.1,1.1h10.4c0.6,0,1.1-0.5,1.1-1.1v-6.5
		c0-0.6-0.5-1.1-1.1-1.1H22.8z"/>
</g>
<path d="M32.3,17.7h-1.8c-0.5,0-0.8-0.4-0.8-0.8v-0.8c0-0.5,0.4-0.8,0.8-0.8h1.8c0.5,0,0.8,0.4,0.8,0.8v0.8
	C33.2,17.4,32.8,17.7,32.3,17.7z"/>
<rect x="21.2" y="12.3" width="13.6" height="1"/>
</svg>
